﻿First,Role,Class,Email,Phone,Birthday,Snapchat,Instagram,LinkedIn,GitHub,Other
Parth Shah,President,2020,parth.shah@berkeley.edu,4087109936,8/14,partyshah,@party.shah,https://www.linkedin.com/in/parth-shah-4184b270/,https://github.com/partyshah,https://twitter.com/party_shah
Elise Xu,Vice President,2020,elisexu@berkeley.edu,4082287023,12/4,hiphophappening,xulace,https://www.linkedin.com/in/elise-xu/,https://github.com/elisexu,
Kyle Tse,Project Manager,2020,tse.kylekobie@berkeley.edu,6265866998,8/31,avatarkyle,avatarkyle,https://www.linkedin.com/in/kyle-tse/,https://github.com/tsekylekobie,
Brian DeLeonardis,Project Manager,2020,bdeleonardis@berkeley.edu,,,,,https://www.linkedin.com/in/brian-deleonardis-b49030121/,https://github.com/bdeleonardis1,
Raymond Guo,Vice President,2021,guor.lei@berkeley.edu,2402053626,7/6,guor.lei,guor.lei,https://www.linkedin.com/in/raymond-guo/,https://github.com/guor8lei,raymondguo.me
Andrew Lieu,Vice President,2021,andrewlieu@berkeley.edu,6262781356,5/13,andrew_lieu,andrewlieuu,,andrewlieu,
William Zhou,Vice President,2021,guanlinzhou@berkeley.edu,8183072334,10/11,guanlinzhou,guanwiththelin,https://linkedin.com/in/williamzhouu,https://github.com/guanlinzhou,
Rachel Lau,Project Manager,2021,rachellau@berkeley.edu,4088293901,7/26,raulau,raurlau,https://linkedin.com/in/rachel-s-lau,https://github.com/rachelslau,https://rachelslau.github.io
Kelvin Jue,Project Manager,2021,kelvinjue@berkeley.edu,4694044555,4/13,,Kelvinjue,https://www.linkedin.com/in/kelvin-jue,Github.com/kelvinjue,
Erica Kong,Project Manager,2021,waikeikong@berkeley.edu,4156466727,3/31,,ek_wkk,https://www.linkedin.com/in/erica-kong-085169a1,https://github.com/ekwkk,
Selina Feng,Project Manager,2021,selina.feng@berkeley.edu,4085067120,6/22,selina-feng,selina.feng,https://www.linkedin.com/in/selina-feng/,https://github.com/selinafeng,
Vincent Tantra,Client Developer,2021,v_tantra@berkeley.edu,5108286581,5/29,vincent41096,v_tantra,https://www.linkedin.com/in/vincenttantra,https://www.github.com/vtantra,vtantra.github.io
Stephen Ng,Client Developer,2021,stephng3@berkeley.edu,5105991693,11/4,,Stephenng3,linkedin.com/stephenngjy,github.com/stephng3,stephng3.github.io
Jodie Lu,Client Developer,2021,jodielu_@berkeley.edu,3032634789,11/05,jodes_lu,jodielu_,linkedin.com/in/jodie-lu,jodielu,
Kyle Golden,Client Developer,2021,kylegolden@berkeley.edu,7142713576,10/15,thegoldenkyle,thegoldenkyle,https://www.linkedin.com/in/kyleagolden/,https://github.com/TheGoldenKyle,
Micah Feras,Client Developer,2021,mferas@berkeley.edu,8184049289,10/03,,mikhail_elior,https://www.linkedin.com/in/micahelinorferas/,https://github.com/micahelinor,
Katelyn Schmidt,Client Developer,2021,17schmidtkatelyn@berkeley.edu,9496789488,1/15,katelynschmidt,katelynschmdt,,github.com/katelyn-schmidt,
Raymond Xu,Client Developer,2021,raymondxu@berkeley.edu,,,,,https://www.linkedin.com/in/raymond-x-13b346138/,,
Juan Cai,Client Developer,2021,juancw08@berkeley.edu,6264169658,11/08,juancai,juancaiw,https://www.linkedin.com/in/juan-cai/,https://github.com/Juancw08,
Daniel Gultom,Client Developer,2021,daniel.gultom@berkeley.edu,9253146842,10/22,danielhamg,danielhamg,https://www.linkedin.com/in/daniel-gultom/,,danielgultom.github.io
Julia Wang,Vice President,2022,juliawang821@berkeley.edu,2402465073,8/21,juliawang18,juliaxwang,https://linkedin.com/in/julia-wang-433218168/,https://github.com/juliawang18,
Richard Liu,Vice President,2022,richard.y.liu@berkeley.edu,4252291007,6/15,rrrliu,richglitch,https://www.linkedin.com/in/richard-y-liu/,https://github.com/rrrliu,richardliu.me
Isabelle Zhou,Project Manager,2022,isabellezhou@berkeley.edu,2409945293,6/28,,izyzhou,https://www.linkedin.com/in/isabelle-zhou/,https://github.com/isabelleyzhou,
Francesca Song,Project Manager,2022,francesca.song@berkeley.edu,6267100951,3/14,franniful,franchestnut_,linkedin.com/in/francescajsong,francescajs,
Warren Wang,Project Manager,2022,warrenwwang@berkeley.edu,6263776012,11/27,warrenwwang,warrenwwang,https://linkedin.com/in/warrenwwang/,https://github.com/Warrenwwang1,warrenwwang1.github.io
Bianca Lee,Project Manager,2022,bianca.lee@berkeley.edu,6268996175,10/27,biancaa_leee,bicanalee,linkedin.com/in/biancalee27/,github.com/leebianca,leebianca.github.io
Kathleen Kong,Mentored Developer,2022,kathleenkong@berkeley.edu,4086807632,11/10,purple5552,kathleenkong_,https://www.linkedin.com/in/kathleenlkong/,,
Michael Chen,Client Developer,2022,avi1234@berkeley.edu,4088233970,8/4,michaelchenyy,michael.z.chen,https://www.linkedin.com/in/mchen185/,https://github.com/mchen10,https://mchen10.github.io/
Kevin Zhu,Client Developer,2022,zhu.kevin@berkeley.edu,6573310806,8/22,kevindoesntknow,kevinhasnoidea,linkedin.com/in/kevinjzhu,GitHub.com/kevinzhu822,https://kevin-zhu.com/
Ryan DiCenzo,Client Developer,2022,ryandicenzo@berkeley.edu,9492125623,4/18,dicenzoryan,ryan_dicenzo,www.linkedin.com/in/ryandicenzo,https://github.com/ryandicenzo,ryandicenzo.com
Andrew Kou,Client Developer,2022,andrewkou@berkeley.edu,4086934788,1/7,mrandrewkou14,andrew.kou,https://linkedin.com/in/andrew-k-6071b8137/,https://github.com/andrewhkou,
Elena Chen,Client Developer,2022,elena.chen@berkeley.edu,9178680797,1/3,elena-chen,elenachenchen,https://www.linkedin.com/in/ziyi-‘elena’-c-b1309a106,,
Kerry Huang,Mentored Developer,2023,kerryhuang@berkeley.edu,510-556-6659,09/19/2001,,kerryhuang773,," github.com/kerryhuang1",
Katja Maucec,Mentored Developer,2023,katja.maucec@berkeley.edu,3036676762,12/06/2000,pink_kitkat99,iced_vanilla_katte,,,
Stephanie Xiao,Mentored Developer,2023,stephaniex@berkeley.edu,4088385812,12/20,stephaniexiao,stephanie.xiao,https://www.linkedin.com/in/stephanie-xiao-711588159/,github.com/stephaniexiao,
Kelly Tsai,Client Developer,2023,kellytsai@berkeley.edu,5109848127,6/14,kellytsai0614,kelly_tsai,https://www.linkedin.com/in/kelly-tsai/,https://github.com/youzhentsai,
Ryan Zhao,Client Developer,2023,ryanzhao@berkeley.edu,2038590643,4/15/01,knightasterial,knightasterial,https://www.linkedin.com/in/ryan-zhao-ab4752121/,https://github.com/KnightAsterial,
James Li,Client Developer,2023,james.y.li@berkeley.edu,7038629643,11/09/2000,jamesli48,jamesli898,www.linkedin.com/in/james-li898,,
Jessica Dowdall,Client Developer,2023,jdowdall@berkeley.edu,6517030006,11/05,jessimd,jmichaelad,linkedin.com/dowdalljessica,github.com/jessicamd,
Terrance Li,Client Developer,2023,tyli@berkeley.edu,4257377529,11/02/2000,,darkterbear,https://www.linkedin.com/in/terrance-li/,https//github.com/darkterbear,https://terranceli.com
David Ning,Client Developer,2023,davidning@berkeley.edu,4089059688,12/22/00,,david.ning,https://www.linkedin.com/in/david-ning/,https://github.com/Kalamitous,
Connor Lien,Client Developer,2023,connorlien@berkeley.edu,4083984757,09/04/2001,corn.connor,connor.lien,https://www.linkedin.com/in/connorlien/,github.com/connorlien,
Constance Shi,Client Developer,2023,constance.shi@berkeley.edu,8056383723,4/27/01,,who__is__shi,https://www.linkedin.com/in/constance-shi/,https://github.com/constanceshi,
Christy Koh,Client Developer,2023,christykoh@berkeley.edu,9255779881,2/11/2001,,crispy.koh,https://www.linkedin.com/in/christykoh/,https://github.com/christykoh,
Sahil Thakur,Mentored Developer,2023,sahilthakur@berkeley.edu,3034678349,4/3/2001,silly_sahil,silly.sahil,https://www.linkedin.com/in/sahil-thakur-06a892196/,https://github.com/sahilthakur3029,
Tetsuro Escudero,,,,,,,,,,
Ishil Puri,Client Developer,2023,ipuri@berkeley.edu,5103711268,10/10/2001,,ishilp,,https://github.com/ishil-puri,